{
    "android.intent.category.MASTER_CLEAR.permission.C2D_MESSAGE": {
        "protectionLevel": "signature"
    },
    "android.permission.ACCEPT_HANDOVER": {
        "description": "permdesc_acceptHandovers",
        "protectionLevel": "dangerous"
    },
    "android.permission.ACCESS_AMBIENT_LIGHT_STATS": {
        "protectionLevel": "signature|privileged|development"
    },
    "android.permission.ACCESS_BACKGROUND_LOCATION": {
        "description": "permdesc_accessBackgroundLocation",
        "label": "permlab_accessBackgroundLocation",
        "protectionLevel": "dangerous|instant"
    },
    "android.permission.ACCESS_BLOBS_ACROSS_USERS": {
        "protectionLevel": "signature|privileged|development|role"
    },
    "android.permission.ACCESS_BROADCAST_RADIO": {
        "protectionLevel": "signature|privileged"
    },
    "android.permission.ACCESS_CACHE_FILESYSTEM": {
        "protectionLevel": "signature|privileged"
    },
    "android.permission.ACCESS_CHECKIN_PROPERTIES": {
        "protectionLevel": "signature|privileged"
    },
    "android.permission.ACCESS_COARSE_LOCATION": {
        "description": "permdesc_accessCoarseLocation",
        "label": "permlab_accessCoarseLocation",
        "protectionLevel": "dangerous|instant"
    },
    "android.permission.ACCESS_CONTENT_PROVIDERS_EXTERNALLY": {
        "protectionLevel": "signature"
    },
    "android.permission.ACCESS_CONTEXT_HUB": {
        "protectionLevel": "signature|privileged"
    },
    "android.permission.ACCESS_DRM_CERTIFICATES": {
        "protectionLevel": "signature|privileged"
    },
    "android.permission.ACCESS_FINE_LOCATION": {
        "description": "permdesc_accessFineLocation",
        "label": "permlab_accessFineLocation",
        "protectionLevel": "dangerous|instant"
    },
    "android.permission.ACCESS_FM_RADIO": {
        "protectionLevel": "signature|privileged"
    },
    "android.permission.ACCESS_IMS_CALL_SERVICE": {
        "description": "permdesc_accessImsCallService",
        "label": "permlab_accessImsCallService",
        "protectionLevel": "signature|privileged"
    },
    "android.permission.ACCESS_INPUT_FLINGER": {
        "protectionLevel": "signature"
    },
    "android.permission.ACCESS_INSTANT_APPS": {
        "protectionLevel": "signature|installer|verifier|role"
    },
    "android.permission.ACCESS_KEYGUARD_SECURE_STORAGE": {
        "protectionLevel": "signature|setup"
    },
    "android.permission.ACCESS_LOCATION_EXTRA_COMMANDS": {
        "description": "permdesc_accessLocationExtraCommands",
        "label": "permlab_accessLocationExtraCommands",
        "protectionLevel": "normal"
    },
    "android.permission.ACCESS_LOCUS_ID_USAGE_STATS": {
        "protectionLevel": "signature|role"
    },
    "android.permission.ACCESS_LOWPAN_STATE": {
        "protectionLevel": "signature|privileged"
    },
    "android.permission.ACCESS_MEDIA_LOCATION": {
        "description": "permdesc_mediaLocation",
        "label": "permlab_mediaLocation",
        "protectionLevel": "dangerous"
    },
    "android.permission.ACCESS_MESSAGES_ON_ICC": {
        "protectionLevel": "signature"
    },
    "android.permission.ACCESS_MOCK_LOCATION": {
        "protectionLevel": "signature"
    },
    "android.permission.ACCESS_MTP": {
        "protectionLevel": "signature|privileged"
    },
    "android.permission.ACCESS_NETWORK_CONDITIONS": {
        "protectionLevel": "signature|privileged"
    },
    "android.permission.ACCESS_NETWORK_STATE": {
        "description": "permdesc_accessNetworkState",
        "label": "permlab_accessNetworkState",
        "protectionLevel": "normal|instant"
    },
    "android.permission.ACCESS_NOTIFICATIONS": {
        "protectionLevel": "signature|privileged|appop"
    },
    "android.permission.ACCESS_NOTIFICATION_POLICY": {
        "description": "permdesc_access_notification_policy",
        "label": "permlab_access_notification_policy",
        "protectionLevel": "normal"
    },
    "android.permission.ACCESS_PDB_STATE": {
        "protectionLevel": "signature"
    },
    "android.permission.ACCESS_RCS_USER_CAPABILITY_EXCHANGE": {
        "protectionLevel": "internal|role"
    },
    "android.permission.ACCESS_SHARED_LIBRARIES": {
        "protectionLevel": "signature|installer"
    },
    "android.permission.ACCESS_SHORTCUTS": {
        "protectionLevel": "signature|role"
    },
    "android.permission.ACCESS_SURFACE_FLINGER": {
        "protectionLevel": "signature"
    },
    "android.permission.ACCESS_TUNED_INFO": {
        "protectionLevel": "signature|privileged|vendorPrivileged"
    },
    "android.permission.ACCESS_TV_DESCRAMBLER": {
        "protectionLevel": "signature|privileged|vendorPrivileged"
    },
    "android.permission.ACCESS_TV_TUNER": {
        "protectionLevel": "signature|privileged|vendorPrivileged"
    },
    "android.permission.ACCESS_UCE_OPTIONS_SERVICE": {
        "protectionLevel": "signature|privileged"
    },
    "android.permission.ACCESS_UCE_PRESENCE_SERVICE": {
        "protectionLevel": "signature|privileged"
    },
    "android.permission.ACCESS_VIBRATOR_STATE": {
        "description": "permdesc_vibrator_state",
        "label": "permdesc_vibrator_state",
        "protectionLevel": "signature|privileged"
    },
    "android.permission.ACCESS_VOICE_INTERACTION_SERVICE": {
        "protectionLevel": "signature"
    },
    "android.permission.ACCESS_VR_MANAGER": {
        "protectionLevel": "signature"
    },
    "android.permission.ACCESS_VR_STATE": {
        "protectionLevel": "signature|preinstalled"
    },
    "android.permission.ACCESS_WIFI_STATE": {
        "description": "permdesc_accessWifiState",
        "label": "permlab_accessWifiState",
        "protectionLevel": "normal"
    },
    "android.permission.ACCESS_WIMAX_STATE": {
        "description": "permdesc_accessWimaxState",
        "label": "permlab_accessWimaxState",
        "protectionLevel": "normal"
    },
    "android.permission.ACCOUNT_MANAGER": {
        "protectionLevel": "signature"
    },
    "android.permission.ACTIVITY_EMBEDDING": {
        "protectionLevel": "signature|privileged"
    },
    "android.permission.ACTIVITY_RECOGNITION": {
        "description": "permdesc_activityRecognition",
        "label": "permlab_activityRecognition",
        "protectionLevel": "dangerous|instant"
    },
    "android.permission.ACT_AS_PACKAGE_FOR_ACCESSIBILITY": {
        "protectionLevel": "signature"
    },
    "android.permission.ADD_TRUSTED_DISPLAY": {
        "protectionLevel": "signature"
    },
    "android.permission.ADJUST_RUNTIME_PERMISSIONS_POLICY": {
        "protectionLevel": "signature|installer"
    },
    "android.permission.ALLOCATE_AGGRESSIVE": {
        "protectionLevel": "signature|privileged"
    },
    "android.permission.ALLOW_ANY_CODEC_FOR_PLAYBACK": {
        "protectionLevel": "signature|privileged"
    },
    "android.permission.ALLOW_PLACE_IN_MULTI_PANE_SETTINGS": {
        "protectionLevel": "signature"
    },
    "android.permission.ALLOW_SLIPPERY_TOUCHES": {
        "protectionLevel": "signature|recents"
    },
    "android.permission.AMBIENT_WALLPAPER": {
        "protectionLevel": "signature|preinstalled"
    },
    "android.permission.ANSWER_PHONE_CALLS": {
        "description": "permdesc_answerPhoneCalls",
        "label": "permlab_answerPhoneCalls",
        "protectionLevel": "dangerous|runtime"
    },
    "android.permission.APPROVE_INCIDENT_REPORTS": {
        "protectionLevel": "signature|incidentReportApprover"
    },
    "android.permission.ASEC_ACCESS": {
        "protectionLevel": "signature"
    },
    "android.permission.ASEC_CREATE": {
        "protectionLevel": "signature"
    },
    "android.permission.ASEC_DESTROY": {
        "protectionLevel": "signature"
    },
    "android.permission.ASEC_MOUNT_UNMOUNT": {
        "protectionLevel": "signature"
    },
    "android.permission.ASEC_RENAME": {
        "protectionLevel": "signature"
    },
    "android.permission.ASSOCIATE_COMPANION_DEVICES": {
        "protectionLevel": "internal|role"
    },
    "android.permission.ASSOCIATE_INPUT_DEVICE_TO_DISPLAY": {
        "protectionLevel": "signature"
    },
    "android.permission.AUTHENTICATE_ACCOUNTS": {
        "protectionLevel": "normal"
    },
    "android.permission.BACKGROUND_CAMERA": {
        "description": "permdesc_backgroundCamera",
        "label": "permlab_backgroundCamera",
        "protectionLevel": "internal|role"
    },
    "android.permission.BACKUP": {
        "protectionLevel": "signature|privileged"
    },
    "android.permission.BATTERY_PREDICTION": {
        "protectionLevel": "signature|privileged"
    },
    "android.permission.BATTERY_STATS": {
        "protectionLevel": "signature|privileged|development"
    },
    "android.permission.BIND_ACCESSIBILITY_SERVICE": {
        "protectionLevel": "signature"
    },
    "android.permission.BIND_APPWIDGET": {
        "protectionLevel": "signature|privileged"
    },
    "android.permission.BIND_ATTENTION_SERVICE": {
        "protectionLevel": "signature"
    },
    "android.permission.BIND_AUGMENTED_AUTOFILL_SERVICE": {
        "protectionLevel": "signature"
    },
    "android.permission.BIND_AUTOFILL": {
        "protectionLevel": "signature"
    },
    "android.permission.BIND_AUTOFILL_FIELD_CLASSIFICATION_SERVICE": {
        "protectionLevel": "signature"
    },
    "android.permission.BIND_AUTOFILL_SERVICE": {
        "protectionLevel": "signature"
    },
    "android.permission.BIND_CACHE_QUOTA_SERVICE": {
        "protectionLevel": "signature"
    },
    "android.permission.BIND_CALL_DIAGNOSTIC_SERVICE": {
        "protectionLevel": "signature"
    },
    "android.permission.BIND_CALL_REDIRECTION_SERVICE": {
        "protectionLevel": "signature|privileged"
    },
    "android.permission.BIND_CARRIER_MESSAGING_CLIENT_SERVICE": {
        "protectionLevel": "signature"
    },
    "android.permission.BIND_CARRIER_MESSAGING_SERVICE": {
        "protectionLevel": "signature|privileged"
    },
    "android.permission.BIND_CARRIER_SERVICES": {
        "description": "permdesc_bindCarrierServices",
        "label": "permlab_bindCarrierServices",
        "protectionLevel": "signature|privileged"
    },
    "android.permission.BIND_CELL_BROADCAST_SERVICE": {
        "description": "permdesc_bindCellBroadcastService",
        "label": "permlab_bindCellBroadcastService",
        "protectionLevel": "signature"
    },
    "android.permission.BIND_CHOOSER_TARGET_SERVICE": {
        "protectionLevel": "signature"
    },
    "android.permission.BIND_COMPANION_DEVICE_MANAGER_SERVICE": {
        "protectionLevel": "signature"
    },
    "android.permission.BIND_COMPANION_DEVICE_SERVICE": {
        "protectionLevel": "signature"
    },
    "android.permission.BIND_CONDITION_PROVIDER_SERVICE": {
        "protectionLevel": "signature"
    },
    "android.permission.BIND_CONNECTION_SERVICE": {
        "protectionLevel": "signature|privileged"
    },
    "android.permission.BIND_CONTENT_CAPTURE_SERVICE": {
        "protectionLevel": "signature"
    },
    "android.permission.BIND_CONTENT_SUGGESTIONS_SERVICE": {
        "protectionLevel": "signature"
    },
    "android.permission.BIND_CONTROLS": {
        "protectionLevel": "signature"
    },
    "android.permission.BIND_DEVICE_ADMIN": {
        "protectionLevel": "signature"
    },
    "android.permission.BIND_DIRECTORY_SEARCH": {
        "protectionLevel": "signature|privileged"
    },
    "android.permission.BIND_DISPLAY_HASHING_SERVICE": {
        "protectionLevel": "signature"
    },
    "android.permission.BIND_DOMAIN_VERIFICATION_AGENT": {
        "protectionLevel": "signature"
    },
    "android.permission.BIND_DREAM_SERVICE": {
        "protectionLevel": "signature"
    },
    "android.permission.BIND_EUICC_SERVICE": {
        "protectionLevel": "signature"
    },
    "android.permission.BIND_EXPLICIT_HEALTH_CHECK_SERVICE": {
        "protectionLevel": "signature|privileged"
    },
    "android.permission.BIND_EXTERNAL_STORAGE_SERVICE": {
        "protectionLevel": "signature"
    },
    "android.permission.BIND_GBA_SERVICE": {
        "protectionLevel": "signature"
    },
    "android.permission.BIND_HOTWORD_DETECTION_SERVICE": {
        "protectionLevel": "signature"
    },
    "android.permission.BIND_IMS_SERVICE": {
        "protectionLevel": "signature|privileged|vendorPrivileged"
    },
    "android.permission.BIND_INCALL_SERVICE": {
        "protectionLevel": "signature|privileged"
    },
    "android.permission.BIND_INLINE_SUGGESTION_RENDER_SERVICE": {
        "protectionLevel": "signature"
    },
    "android.permission.BIND_INPUT_METHOD": {
        "protectionLevel": "signature"
    },
    "android.permission.BIND_INTENT_FILTER_VERIFIER": {
        "protectionLevel": "signature"
    },
    "android.permission.BIND_JOB_SERVICE": {
        "protectionLevel": "signature"
    },
    "android.permission.BIND_KEYGUARD_APPWIDGET": {
        "protectionLevel": "signature|privileged"
    },
    "android.permission.BIND_MIDI_DEVICE_SERVICE": {
        "protectionLevel": "signature"
    },
    "android.permission.BIND_MUSIC_RECOGNITION_SERVICE": {
        "protectionLevel": "signature"
    },
    "android.permission.BIND_NETWORK_RECOMMENDATION_SERVICE": {
        "protectionLevel": "signature"
    },
    "android.permission.BIND_NFC_SERVICE": {
        "protectionLevel": "signature"
    },
    "android.permission.BIND_NOTIFICATION_ASSISTANT_SERVICE": {
        "protectionLevel": "signature"
    },
    "android.permission.BIND_NOTIFICATION_LISTENER_SERVICE": {
        "protectionLevel": "signature"
    },
    "android.permission.BIND_PACKAGE_VERIFIER": {
        "protectionLevel": "signature"
    },
    "android.permission.BIND_PHONE_ACCOUNT_SUGGESTION_SERVICE": {
        "protectionLevel": "signature"
    },
    "android.permission.BIND_PRINT_RECOMMENDATION_SERVICE": {
        "protectionLevel": "signature"
    },
    "android.permission.BIND_PRINT_SERVICE": {
        "protectionLevel": "signature"
    },
    "android.permission.BIND_PRINT_SPOOLER_SERVICE": {
        "protectionLevel": "signature"
    },
    "android.permission.BIND_QUICK_ACCESS_WALLET_SERVICE": {
        "protectionLevel": "signature"
    },
    "android.permission.BIND_QUICK_SETTINGS_TILE": {
        "protectionLevel": "signature"
    },
    "android.permission.BIND_REMOTEVIEWS": {
        "protectionLevel": "signature|privileged"
    },
    "android.permission.BIND_REMOTE_DISPLAY": {
        "protectionLevel": "signature"
    },
    "android.permission.BIND_RESOLVER_RANKER_SERVICE": {
        "protectionLevel": "signature"
    },
    "android.permission.BIND_RESUME_ON_REBOOT_SERVICE": {
        "protectionLevel": "signature"
    },
    "android.permission.BIND_ROTATION_RESOLVER_SERVICE": {
        "protectionLevel": "signature"
    },
    "android.permission.BIND_ROUTE_PROVIDER": {
        "protectionLevel": "signature"
    },
    "android.permission.BIND_RUNTIME_PERMISSION_PRESENTER_SERVICE": {
        "protectionLevel": "signature"
    },
    "android.permission.BIND_SCREENING_SERVICE": {
        "protectionLevel": "signature|privileged"
    },
    "android.permission.BIND_SETTINGS_SUGGESTIONS_SERVICE": {
        "protectionLevel": "signature"
    },
    "android.permission.BIND_SOUND_TRIGGER_DETECTION_SERVICE": {
        "protectionLevel": "signature"
    },
    "android.permission.BIND_TELECOM_CONNECTION_SERVICE": {
        "protectionLevel": "signature|privileged"
    },
    "android.permission.BIND_TELEPHONY_DATA_SERVICE": {
        "protectionLevel": "signature"
    },
    "android.permission.BIND_TELEPHONY_NETWORK_SERVICE": {
        "protectionLevel": "signature"
    },
    "android.permission.BIND_TEXTCLASSIFIER_SERVICE": {
        "protectionLevel": "signature"
    },
    "android.permission.BIND_TEXT_SERVICE": {
        "protectionLevel": "signature"
    },
    "android.permission.BIND_TIME_ZONE_PROVIDER_SERVICE": {
        "protectionLevel": "signature"
    },
    "android.permission.BIND_TRACE_REPORT_SERVICE": {
        "protectionLevel": "signature"
    },
    "android.permission.BIND_TRANSLATION_SERVICE": {
        "protectionLevel": "signature"
    },
    "android.permission.BIND_TRUST_AGENT": {
        "protectionLevel": "signature"
    },
    "android.permission.BIND_TV_INPUT": {
        "protectionLevel": "signature|privileged"
    },
    "android.permission.BIND_TV_REMOTE_SERVICE": {
        "protectionLevel": "signature|privileged"
    },
    "android.permission.BIND_VISUAL_VOICEMAIL_SERVICE": {
        "protectionLevel": "signature|privileged"
    },
    "android.permission.BIND_VOICE_INTERACTION": {
        "protectionLevel": "signature"
    },
    "android.permission.BIND_VPN_SERVICE": {
        "protectionLevel": "signature"
    },
    "android.permission.BIND_VR_LISTENER_SERVICE": {
        "protectionLevel": "signature"
    },
    "android.permission.BIND_WALLPAPER": {
        "protectionLevel": "signature|privileged"
    },
    "android.permission.BLUETOOTH": {
        "description": "permdesc_bluetooth",
        "label": "permlab_bluetooth",
        "protectionLevel": "normal"
    },
    "android.permission.BLUETOOTH_ADMIN": {
        "description": "permdesc_bluetoothAdmin",
        "label": "permlab_bluetoothAdmin",
        "protectionLevel": "normal"
    },
    "android.permission.BLUETOOTH_ADVERTISE": {
        "description": "permdesc_bluetooth_advertise",
        "label": "permlab_bluetooth_advertise",
        "protectionLevel": "dangerous"
    },
    "android.permission.BLUETOOTH_CONNECT": {
        "description": "permdesc_bluetooth_connect",
        "label": "permlab_bluetooth_connect",
        "protectionLevel": "dangerous"
    },
    "android.permission.BLUETOOTH_MAP": {
        "protectionLevel": "signature"
    },
    "android.permission.BLUETOOTH_PRIVILEGED": {
        "protectionLevel": "signature|privileged"
    },
    "android.permission.BLUETOOTH_SCAN": {
        "description": "permdesc_bluetooth_scan",
        "label": "permlab_bluetooth_scan",
        "protectionLevel": "dangerous"
    },
    "android.permission.BLUETOOTH_STACK": {
        "protectionLevel": "signature"
    },
    "android.permission.BODY_SENSORS": {
        "description": "permdesc_bodySensors",
        "label": "permlab_bodySensors",
        "protectionLevel": "dangerous"
    },
    "android.permission.BRICK": {
        "protectionLevel": "signature"
    },
    "android.permission.BRIGHTNESS_SLIDER_USAGE": {
        "protectionLevel": "signature|privileged|development"
    },
    "android.permission.BROADCAST_CLOSE_SYSTEM_DIALOGS": {
        "protectionLevel": "signature|privileged|recents"
    },
    "android.permission.BROADCAST_NETWORK_PRIVILEGED": {
        "protectionLevel": "signature|privileged"
    },
    "android.permission.BROADCAST_PACKAGE_REMOVED": {
        "protectionLevel": "signature"
    },
    "android.permission.BROADCAST_SMS": {
        "protectionLevel": "signature"
    },
    "android.permission.BROADCAST_STICKY": {
        "description": "permdesc_broadcastSticky",
        "label": "permlab_broadcastSticky",
        "protectionLevel": "normal"
    },
    "android.permission.BROADCAST_WAP_PUSH": {
        "protectionLevel": "signature"
    },
    "android.permission.BYPASS_ROLE_QUALIFICATION": {
        "protectionLevel": "internal|role"
    },
    "android.permission.CACHE_CONTENT": {
        "protectionLevel": "signature|documenter"
    },
    "android.permission.CALL_COMPANION_APP": {
        "description": "permdesc_callCompanionApp",
        "label": "permlab_callCompanionApp",
        "protectionLevel": "normal"
    },
    "android.permission.CALL_PHONE": {
        "description": "permdesc_callPhone",
        "label": "permlab_callPhone",
        "protectionLevel": "dangerous"
    },
    "android.permission.CALL_PRIVILEGED": {
        "protectionLevel": "signature|privileged"
    },
    "android.permission.CAMERA": {
        "description": "permdesc_camera",
        "label": "permlab_camera",
        "protectionLevel": "dangerous|instant"
    },
    "android.permission.CAMERA_DISABLE_TRANSMIT_LED": {
        "protectionLevel": "signature|privileged"
    },
    "android.permission.CAMERA_INJECT_EXTERNAL_CAMERA": {
        "protectionLevel": "signature"
    },
    "android.permission.CAMERA_OPEN_CLOSE_LISTENER": {
        "description": "permdesc_cameraOpenCloseListener",
        "label": "permlab_cameraOpenCloseListener",
        "protectionLevel": "signature"
    },
    "android.permission.CAMERA_SEND_SYSTEM_EVENTS": {
        "protectionLevel": "signature|privileged"
    },
    "android.permission.CAPTURE_AUDIO_HOTWORD": {
        "protectionLevel": "signature|privileged|role"
    },
    "android.permission.CAPTURE_AUDIO_OUTPUT": {
        "protectionLevel": "signature|privileged|role"
    },
    "android.permission.CAPTURE_BLACKOUT_CONTENT": {
        "protectionLevel": "signature"
    },
    "android.permission.CAPTURE_MEDIA_OUTPUT": {
        "protectionLevel": "signature|privileged|role"
    },
    "android.permission.CAPTURE_SECURE_VIDEO_OUTPUT": {
        "protectionLevel": "signature"
    },
    "android.permission.CAPTURE_TUNER_AUDIO_INPUT": {
        "protectionLevel": "signature|privileged"
    },
    "android.permission.CAPTURE_TV_INPUT": {
        "protectionLevel": "signature|privileged"
    },
    "android.permission.CAPTURE_VIDEO_OUTPUT": {
        "protectionLevel": "signature"
    },
    "android.permission.CAPTURE_VOICE_COMMUNICATION_OUTPUT": {
        "protectionLevel": "signature|privileged|role"
    },
    "android.permission.CARRIER_FILTER_SMS": {
        "protectionLevel": "signature|privileged"
    },
    "android.permission.CHANGE_ACCESSIBILITY_VOLUME": {
        "protectionLevel": "signature"
    },
    "android.permission.CHANGE_APP_IDLE_STATE": {
        "protectionLevel": "signature|privileged"
    },
    "android.permission.CHANGE_BACKGROUND_DATA_SETTING": {
        "protectionLevel": "signature"
    },
    "android.permission.CHANGE_COMPONENT_ENABLED_STATE": {
        "protectionLevel": "signature|privileged"
    },
    "android.permission.CHANGE_CONFIGURATION": {
        "protectionLevel": "signature|privileged|development"
    },
    "android.permission.CHANGE_DEVICE_IDLE_TEMP_WHITELIST": {
        "protectionLevel": "signature|privileged"
    },
    "android.permission.CHANGE_HDMI_CEC_ACTIVE_SOURCE": {
        "protectionLevel": "signature|privileged"
    },
    "android.permission.CHANGE_LOWPAN_STATE": {
        "protectionLevel": "signature|privileged"
    },
    "android.permission.CHANGE_NETWORK_STATE": {
        "description": "permdesc_changeNetworkState",
        "label": "permlab_changeNetworkState",
        "protectionLevel": "normal"
    },
    "android.permission.CHANGE_OVERLAY_PACKAGES": {
        "protectionLevel": "signature|privileged"
    },
    "android.permission.CHANGE_WIFI_MULTICAST_STATE": {
        "description": "permdesc_changeWifiMulticastState",
        "label": "permlab_changeWifiMulticastState",
        "protectionLevel": "normal"
    },
    "android.permission.CHANGE_WIFI_STATE": {
        "description": "permdesc_changeWifiState",
        "label": "permlab_changeWifiState",
        "protectionLevel": "normal"
    },
    "android.permission.CHANGE_WIMAX_STATE": {
        "description": "permdesc_changeWimaxState",
        "label": "permlab_changeWimaxState",
        "protectionLevel": "normal"
    },
    "android.permission.CLEAR_APP_CACHE": {
        "protectionLevel": "signature|privileged"
    },
    "android.permission.CLEAR_APP_GRANTED_URI_PERMISSIONS": {
        "protectionLevel": "signature"
    },
    "android.permission.CLEAR_APP_USER_DATA": {
        "protectionLevel": "signature|installer"
    },
    "android.permission.CLEAR_FREEZE_PERIOD": {
        "protectionLevel": "signature"
    },
    "android.permission.COMPANION_APPROVE_WIFI_CONNECTIONS": {
        "protectionLevel": "signature|privileged"
    },
    "android.permission.CONFIGURE_DISPLAY_BRIGHTNESS": {
        "protectionLevel": "signature|privileged|development"
    },
    "android.permission.CONFIGURE_DISPLAY_COLOR_MODE": {
        "protectionLevel": "signature"
    },
    "android.permission.CONFIGURE_INTERACT_ACROSS_PROFILES": {
        "protectionLevel": "signature"
    },
    "android.permission.CONFIGURE_WIFI_DISPLAY": {
        "protectionLevel": "signature"
    },
    "android.permission.CONFIRM_FULL_BACKUP": {
        "protectionLevel": "signature"
    },
    "android.permission.CONNECTIVITY_INTERNAL": {
        "protectionLevel": "signature|privileged"
    },
    "android.permission.CONNECTIVITY_USE_RESTRICTED_NETWORKS": {
        "protectionLevel": "signature|privileged"
    },
    "android.permission.CONTROL_ALWAYS_ON_VPN": {
        "protectionLevel": "signature"
    },
    "android.permission.CONTROL_DEVICE_LIGHTS": {
        "protectionLevel": "signature|privileged"
    },
    "android.permission.CONTROL_DEVICE_STATE": {
        "protectionLevel": "signature"
    },
    "android.permission.CONTROL_DISPLAY_BRIGHTNESS": {
        "protectionLevel": "signature"
    },
    "android.permission.CONTROL_DISPLAY_COLOR_TRANSFORMS": {
        "protectionLevel": "signature|privileged"
    },
    "android.permission.CONTROL_DISPLAY_SATURATION": {
        "protectionLevel": "signature|privileged"
    },
    "android.permission.CONTROL_INCALL_EXPERIENCE": {
        "protectionLevel": "signature|privileged|role"
    },
    "android.permission.CONTROL_KEYGUARD": {
        "protectionLevel": "signature"
    },
    "android.permission.CONTROL_KEYGUARD_SECURE_NOTIFICATIONS": {
        "protectionLevel": "signature|privileged"
    },
    "android.permission.CONTROL_LOCATION_UPDATES": {
        "protectionLevel": "signature|privileged"
    },
    "android.permission.CONTROL_OEM_PAID_NETWORK_PREFERENCE": {
        "protectionLevel": "signature"
    },
    "android.permission.CONTROL_REMOTE_APP_TRANSITION_ANIMATIONS": {
        "protectionLevel": "signature|privileged"
    },
    "android.permission.CONTROL_UI_TRACING": {
        "protectionLevel": "signature|privileged|development"
    },
    "android.permission.CONTROL_VPN": {
        "protectionLevel": "signature|privileged"
    },
    "android.permission.CONTROL_WIFI_DISPLAY": {
        "protectionLevel": "signature"
    },
    "android.permission.COPY_PROTECTED_DATA": {
        "protectionLevel": "signature"
    },
    "android.permission.CREATE_USERS": {
        "protectionLevel": "signature"
    },
    "android.permission.CRYPT_KEEPER": {
        "protectionLevel": "signature|privileged"
    },
    "android.permission.DELETE_CACHE_FILES": {
        "protectionLevel": "signature|privileged"
    },
    "android.permission.DELETE_PACKAGES": {
        "protectionLevel": "signature|privileged"
    },
    "android.permission.DEVICE_POWER": {
        "protectionLevel": "signature"
    },
    "android.permission.DIAGNOSTIC": {
        "protectionLevel": "signature"
    },
    "android.permission.DISABLE_HIDDEN_API_CHECKS": {
        "protectionLevel": "signature"
    },
    "android.permission.DISABLE_INPUT_DEVICE": {
        "protectionLevel": "signature"
    },
    "android.permission.DISABLE_KEYGUARD": {
        "description": "permdesc_disableKeyguard",
        "label": "permlab_disableKeyguard",
        "protectionLevel": "normal"
    },
    "android.permission.DISABLE_SYSTEM_SOUND_EFFECTS": {
        "protectionLevel": "signature|privileged"
    },
    "android.permission.DISPATCH_NFC_MESSAGE": {
        "protectionLevel": "signature|privileged"
    },
    "android.permission.DISPATCH_PROVISIONING_MESSAGE": {
        "protectionLevel": "signature|privileged"
    },
    "android.permission.DOMAIN_VERIFICATION_AGENT": {
        "protectionLevel": "internal|privileged"
    },
    "android.permission.DUMP": {
        "protectionLevel": "signature|privileged|development"
    },
    "android.permission.DVB_DEVICE": {
        "protectionLevel": "signature|privileged"
    },
    "android.permission.ENABLE_TEST_HARNESS_MODE": {
        "protectionLevel": "signature"
    },
    "android.permission.ENTER_CAR_MODE_PRIORITIZED": {
        "protectionLevel": "signature|privileged"
    },
    "android.permission.EXEMPT_FROM_AUDIO_RECORD_RESTRICTIONS": {
        "description": "permdesc_exemptFromAudioRecordRestrictions",
        "label": "permlab_exemptFromAudioRecordRestrictions",
        "protectionLevel": "signature|privileged|role"
    },
    "android.permission.EXPAND_STATUS_BAR": {
        "description": "permdesc_expandStatusBar",
        "label": "permlab_expandStatusBar",
        "protectionLevel": "normal"
    },
    "android.permission.FACTORY_TEST": {
        "protectionLevel": "signature"
    },
    "android.permission.FILTER_EVENTS": {
        "protectionLevel": "signature"
    },
    "android.permission.FLASHLIGHT": {
        "protectionLevel": "normal"
    },
    "android.permission.FORCE_BACK": {
        "protectionLevel": "signature"
    },
    "android.permission.FORCE_DEVICE_POLICY_MANAGER_LOGS": {
        "protectionLevel": "signature"
    },
    "android.permission.FORCE_PERSISTABLE_URI_PERMISSIONS": {
        "protectionLevel": "signature"
    },
    "android.permission.FORCE_STOP_PACKAGES": {
        "protectionLevel": "signature|privileged"
    },
    "android.permission.FOREGROUND_SERVICE": {
        "description": "permdesc_foregroundService",
        "label": "permlab_foregroundService",
        "protectionLevel": "normal|instant"
    },
    "android.permission.FRAME_STATS": {
        "protectionLevel": "signature"
    },
    "android.permission.FREEZE_SCREEN": {
        "protectionLevel": "signature"
    },
    "android.permission.GET_ACCOUNTS": {
        "description": "permdesc_getAccounts",
        "label": "permlab_getAccounts",
        "protectionLevel": "dangerous"
    },
    "android.permission.GET_ACCOUNTS_PRIVILEGED": {
        "protectionLevel": "signature|privileged"
    },
    "android.permission.GET_APP_GRANTED_URI_PERMISSIONS": {
        "protectionLevel": "signature"
    },
    "android.permission.GET_APP_OPS_STATS": {
        "protectionLevel": "signature|privileged|development"
    },
    "android.permission.GET_DETAILED_TASKS": {
        "protectionLevel": "signature"
    },
    "android.permission.GET_INTENT_SENDER_INTENT": {
        "protectionLevel": "signature"
    },
    "android.permission.GET_PACKAGE_SIZE": {
        "description": "permdesc_getPackageSize",
        "label": "permlab_getPackageSize",
        "protectionLevel": "normal"
    },
    "android.permission.GET_PASSWORD": {
        "protectionLevel": "signature"
    },
    "android.permission.GET_PEOPLE_TILE_PREVIEW": {
        "protectionLevel": "signature|recents"
    },
    "android.permission.GET_PROCESS_STATE_AND_OOM_SCORE": {
        "protectionLevel": "signature|privileged|development"
    },
    "android.permission.GET_RUNTIME_PERMISSIONS": {
        "protectionLevel": "signature"
    },
    "android.permission.GET_TASKS": {
        "description": "permdesc_getTasks",
        "label": "permlab_getTasks",
        "protectionLevel": "normal"
    },
    "android.permission.GET_TOP_ACTIVITY_INFO": {
        "protectionLevel": "signature|recents"
    },
    "android.permission.GLOBAL_SEARCH": {
        "protectionLevel": "signature|privileged"
    },
    "android.permission.GLOBAL_SEARCH_CONTROL": {
        "protectionLevel": "signature"
    },
    "android.permission.GRANT_PROFILE_OWNER_DEVICE_IDS_ACCESS": {
        "protectionLevel": "signature"
    },
    "android.permission.GRANT_RUNTIME_PERMISSIONS": {
        "protectionLevel": "signature|installer|verifier"
    },
    "android.permission.GRANT_RUNTIME_PERMISSIONS_TO_TELEPHONY_DEFAULTS": {
        "protectionLevel": "signature"
    },
    "android.permission.HANDLE_CAR_MODE_CHANGES": {
        "protectionLevel": "signature|privileged"
    },
    "android.permission.HARDWARE_TEST": {
        "protectionLevel": "signature"
    },
    "android.permission.HDMI_CEC": {
        "protectionLevel": "signature|privileged|vendorPrivileged"
    },
    "android.permission.HIDE_NON_SYSTEM_OVERLAY_WINDOWS": {
        "protectionLevel": "signature|preinstalled"
    },
    "android.permission.HIDE_OVERLAY_WINDOWS": {
        "protectionLevel": "normal"
    },
    "android.permission.HIGH_SAMPLING_RATE_SENSORS": {
        "description": "permdesc_highSamplingRateSensors",
        "label": "permlab_highSamplingRateSensors",
        "protectionLevel": "normal"
    },
    "android.permission.INJECT_EVENTS": {
        "protectionLevel": "signature"
    },
    "android.permission.INPUT_CONSUMER": {
        "protectionLevel": "signature"
    },
    "android.permission.INSTALL_DYNAMIC_SYSTEM": {
        "protectionLevel": "signature|privileged"
    },
    "android.permission.INSTALL_GRANT_RUNTIME_PERMISSIONS": {
        "protectionLevel": "signature|installer|verifier"
    },
    "android.permission.INSTALL_LOCATION_PROVIDER": {
        "protectionLevel": "signature|privileged"
    },
    "android.permission.INSTALL_LOCATION_TIME_ZONE_PROVIDER_SERVICE": {
        "protectionLevel": "signature|privileged"
    },
    "android.permission.INSTALL_PACKAGES": {
        "protectionLevel": "signature|privileged"
    },
    "android.permission.INSTALL_PACKAGE_UPDATES": {
        "protectionLevel": "signature|privileged"
    },
    "android.permission.INSTALL_SELF_UPDATES": {
        "protectionLevel": "signature|privileged"
    },
    "android.permission.INSTALL_TEST_ONLY_PACKAGE": {
        "protectionLevel": "signature"
    },
    "android.permission.INSTANT_APP_FOREGROUND_SERVICE": {
        "protectionLevel": "signature|development|instant|appop"
    },
    "android.permission.INTENT_FILTER_VERIFICATION_AGENT": {
        "protectionLevel": "signature|privileged"
    },
    "android.permission.INTERACT_ACROSS_PROFILES": {
        "protectionLevel": "signature|appop"
    },
    "android.permission.INTERACT_ACROSS_USERS": {
        "protectionLevel": "signature|privileged|development"
    },
    "android.permission.INTERACT_ACROSS_USERS_FULL": {
        "protectionLevel": "signature|installer"
    },
    "android.permission.INTERNAL_DELETE_CACHE_FILES": {
        "protectionLevel": "signature"
    },
    "android.permission.INTERNAL_SYSTEM_WINDOW": {
        "protectionLevel": "signature"
    },
    "android.permission.INTERNET": {
        "description": "permdesc_createNetworkSockets",
        "label": "permlab_createNetworkSockets",
        "protectionLevel": "normal|instant"
    },
    "android.permission.INVOKE_CARRIER_SETUP": {
        "protectionLevel": "signature|privileged"
    },
    "android.permission.KEEP_UNINSTALLED_PACKAGES": {
        "protectionLevel": "signature"
    },
    "android.permission.KEYPHRASE_ENROLLMENT_APPLICATION": {
        "protectionLevel": "signature|privileged"
    },
    "android.permission.KILL_BACKGROUND_PROCESSES": {
        "description": "permdesc_killBackgroundProcesses",
        "label": "permlab_killBackgroundProcesses",
        "protectionLevel": "normal"
    },
    "android.permission.KILL_UID": {
        "protectionLevel": "signature|installer"
    },
    "android.permission.LAUNCH_MULTI_PANE_SETTINGS_DEEP_LINK": {
        "protectionLevel": "signature|preinstalled"
    },
    "android.permission.LAUNCH_TRUST_AGENT_SETTINGS": {
        "protectionLevel": "signature|privileged"
    },
    "android.permission.LISTEN_ALWAYS_REPORTED_SIGNAL_STRENGTH": {
        "protectionLevel": "signature"
    },
    "android.permission.LOADER_USAGE_STATS": {
        "protectionLevel": "signature|privileged|appop"
    },
    "android.permission.LOCAL_MAC_ADDRESS": {
        "protectionLevel": "signature|privileged"
    },
    "android.permission.LOCATION_HARDWARE": {
        "protectionLevel": "signature|privileged|role"
    },
    "android.permission.LOCK_DEVICE": {
        "protectionLevel": "signature|privileged"
    },
    "android.permission.LOG_COMPAT_CHANGE": {
        "protectionLevel": "signature|privileged"
    },
    "android.permission.LOOP_RADIO": {
        "protectionLevel": "signature|privileged"
    },
    "android.permission.MANAGE_ACCESSIBILITY": {
        "protectionLevel": "signature|setup|recents"
    },
    "android.permission.MANAGE_ACCOUNTS": {
        "protectionLevel": "normal"
    },
    "android.permission.MANAGE_ACTIVITY_STACKS": {
        "protectionLevel": "signature"
    },
    "android.permission.MANAGE_ACTIVITY_TASKS": {
        "protectionLevel": "signature|recents"
    },
    "android.permission.MANAGE_APPOPS": {
        "protectionLevel": "signature"
    },
    "android.permission.MANAGE_APP_HIBERNATION": {
        "protectionLevel": "signature|installer"
    },
    "android.permission.MANAGE_APP_OPS_MODES": {
        "protectionLevel": "signature|installer|verifier"
    },
    "android.permission.MANAGE_APP_OPS_RESTRICTIONS": {
        "protectionLevel": "signature|installer"
    },
    "android.permission.MANAGE_APP_PREDICTIONS": {
        "protectionLevel": "signature|role"
    },
    "android.permission.MANAGE_APP_TOKENS": {
        "protectionLevel": "signature"
    },
    "android.permission.MANAGE_AUDIO_POLICY": {
        "protectionLevel": "signature"
    },
    "android.permission.MANAGE_AUTO_FILL": {
        "protectionLevel": "signature"
    },
    "android.permission.MANAGE_BIND_INSTANT_SERVICE": {
        "protectionLevel": "signature"
    },
    "android.permission.MANAGE_BIOMETRIC": {
        "protectionLevel": "signature"
    },
    "android.permission.MANAGE_BIOMETRIC_DIALOG": {
        "protectionLevel": "signature"
    },
    "android.permission.MANAGE_BLUETOOTH_WHEN_PERMISSION_REVIEW_REQUIRED": {
        "protectionLevel": "signature"
    },
    "android.permission.MANAGE_BLUETOOTH_WHEN_WIRELESS_CONSENT_REQUIRED": {
        "protectionLevel": "signature"
    },
    "android.permission.MANAGE_CAMERA": {
        "protectionLevel": "signature"
    },
    "android.permission.MANAGE_CARRIER_OEM_UNLOCK_STATE": {
        "protectionLevel": "signature|privileged"
    },
    "android.permission.MANAGE_CA_CERTIFICATES": {
        "protectionLevel": "signature|privileged"
    },
    "android.permission.MANAGE_COMPANION_DEVICES": {
        "protectionLevel": "signature"
    },
    "android.permission.MANAGE_CONTENT_CAPTURE": {
        "protectionLevel": "signature"
    },
    "android.permission.MANAGE_CONTENT_SUGGESTIONS": {
        "protectionLevel": "signature"
    },
    "android.permission.MANAGE_CRATES": {
        "protectionLevel": "signature"
    },
    "android.permission.MANAGE_CREDENTIAL_MANAGEMENT_APP": {
        "protectionLevel": "signature"
    },
    "android.permission.MANAGE_DEBUGGING": {
        "protectionLevel": "signature|privileged"
    },
    "android.permission.MANAGE_DEVICE_ADMINS": {
        "protectionLevel": "signature"
    },
    "android.permission.MANAGE_DOCUMENTS": {
        "protectionLevel": "signature|documenter"
    },
    "android.permission.MANAGE_DYNAMIC_ANDROID": {
        "protectionLevel": "signature"
    },
    "android.permission.MANAGE_DYNAMIC_SYSTEM": {
        "protectionLevel": "signature"
    },
    "android.permission.MANAGE_ETHERNET_NETWORKS": {
        "protectionLevel": "signature"
    },
    "android.permission.MANAGE_EXTERNAL_STORAGE": {
        "protectionLevel": "signature|appop|preinstalled"
    },
    "android.permission.MANAGE_FACTORY_RESET_PROTECTION": {
        "protectionLevel": "signature|privileged"
    },
    "android.permission.MANAGE_FINGERPRINT": {
        "protectionLevel": "signature|privileged"
    },
    "android.permission.MANAGE_GAME_MODE": {
        "protectionLevel": "signature"
    },
    "android.permission.MANAGE_HOTWORD_DETECTION": {
        "protectionLevel": "internal|preinstalled"
    },
    "android.permission.MANAGE_IPSEC_TUNNELS": {
        "protectionLevel": "signature|appop"
    },
    "android.permission.MANAGE_LOWPAN_INTERFACES": {
        "protectionLevel": "signature|privileged"
    },
    "android.permission.MANAGE_MEDIA": {
        "protectionLevel": "signature|appop|preinstalled"
    },
    "android.permission.MANAGE_MEDIA_PROJECTION": {
        "protectionLevel": "signature"
    },
    "android.permission.MANAGE_MUSIC_RECOGNITION": {
        "protectionLevel": "signature|privileged|role"
    },
    "android.permission.MANAGE_NETWORK_POLICY": {
        "protectionLevel": "signature"
    },
    "android.permission.MANAGE_NOTIFICATIONS": {
        "protectionLevel": "signature"
    },
    "android.permission.MANAGE_NOTIFICATION_LISTENERS": {
        "protectionLevel": "signature|installer"
    },
    "android.permission.MANAGE_ONE_TIME_PERMISSION_SESSIONS": {
        "protectionLevel": "signature|installer"
    },
    "android.permission.MANAGE_ONGOING_CALLS": {
        "description": "permdesc_manageOngoingCalls",
        "label": "permlab_manageOngoingCalls",
        "protectionLevel": "signature|appop"
    },
    "android.permission.MANAGE_OWN_CALLS": {
        "description": "permdesc_manageOwnCalls",
        "label": "permlab_manageOwnCalls",
        "protectionLevel": "normal"
    },
    "android.permission.MANAGE_PROFILE_AND_DEVICE_OWNERS": {
        "description": "permdesc_manageProfileAndDeviceOwners",
        "label": "permlab_manageProfileAndDeviceOwners",
        "protectionLevel": "signature"
    },
    "android.permission.MANAGE_ROLE_HOLDERS": {
        "protectionLevel": "signature|installer"
    },
    "android.permission.MANAGE_ROLLBACKS": {
        "protectionLevel": "signature|privileged"
    },
    "android.permission.MANAGE_ROTATION_RESOLVER": {
        "protectionLevel": "signature"
    },
    "android.permission.MANAGE_SCOPED_ACCESS_DIRECTORY_PERMISSIONS": {
        "protectionLevel": "signature"
    },
    "android.permission.MANAGE_SEARCH_UI": {
        "protectionLevel": "signature|role"
    },
    "android.permission.MANAGE_SENSORS": {
        "protectionLevel": "signature"
    },
    "android.permission.MANAGE_SENSOR_PRIVACY": {
        "protectionLevel": "internal|role"
    },
    "android.permission.MANAGE_SLICE_PERMISSIONS": {
        "protectionLevel": "signature"
    },
    "android.permission.MANAGE_SMARTSPACE": {
        "protectionLevel": "signature"
    },
    "android.permission.MANAGE_SOUND_TRIGGER": {
        "protectionLevel": "signature|privileged|role"
    },
    "android.permission.MANAGE_SPEECH_RECOGNITION": {
        "protectionLevel": "signature"
    },
    "android.permission.MANAGE_SUBSCRIPTION_PLANS": {
        "protectionLevel": "signature|privileged"
    },
    "android.permission.MANAGE_TEST_NETWORKS": {
        "protectionLevel": "signature"
    },
    "android.permission.MANAGE_TIME_AND_ZONE_DETECTION": {
        "protectionLevel": "signature|privileged"
    },
    "android.permission.MANAGE_TOAST_RATE_LIMITING": {
        "protectionLevel": "signature"
    },
    "android.permission.MANAGE_UI_TRANSLATION": {
        "protectionLevel": "signature|privileged|role"
    },
    "android.permission.MANAGE_USB": {
        "protectionLevel": "signature|privileged"
    },
    "android.permission.MANAGE_USERS": {
        "protectionLevel": "signature|privileged"
    },
    "android.permission.MANAGE_USER_OEM_UNLOCK_STATE": {
        "protectionLevel": "signature|privileged"
    },
    "android.permission.MANAGE_VOICE_KEYPHRASES": {
        "protectionLevel": "signature|privileged"
    },
    "android.permission.MANAGE_WIFI_COUNTRY_CODE": {
        "protectionLevel": "signature"
    },
    "android.permission.MANAGE_WIFI_WHEN_PERMISSION_REVIEW_REQUIRED": {
        "protectionLevel": "signature"
    },
    "android.permission.MARK_DEVICE_ORGANIZATION_OWNED": {
        "protectionLevel": "signature"
    },
    "android.permission.MASTER_CLEAR": {
        "protectionLevel": "signature|privileged"
    },
    "android.permission.MEDIA_CONTENT_CONTROL": {
        "protectionLevel": "signature|privileged"
    },
    "android.permission.MEDIA_RESOURCE_OVERRIDE_PID": {
        "protectionLevel": "signature"
    },
    "android.permission.MODIFY_ACCESSIBILITY_DATA": {
        "protectionLevel": "signature"
    },
    "android.permission.MODIFY_APPWIDGET_BIND_PERMISSIONS": {
        "protectionLevel": "signature|privileged"
    },
    "android.permission.MODIFY_AUDIO_ROUTING": {
        "protectionLevel": "signature|privileged|role"
    },
    "android.permission.MODIFY_AUDIO_SETTINGS": {
        "description": "permdesc_modifyAudioSettings",
        "label": "permlab_modifyAudioSettings",
        "protectionLevel": "normal"
    },
    "android.permission.MODIFY_CELL_BROADCASTS": {
        "protectionLevel": "signature|privileged"
    },
    "android.permission.MODIFY_DAY_NIGHT_MODE": {
        "protectionLevel": "signature|privileged"
    },
    "android.permission.MODIFY_DEFAULT_AUDIO_EFFECTS": {
        "protectionLevel": "signature|privileged"
    },
    "android.permission.MODIFY_NETWORK_ACCOUNTING": {
        "protectionLevel": "signature|privileged"
    },
    "android.permission.MODIFY_PARENTAL_CONTROLS": {
        "protectionLevel": "signature|privileged"
    },
    "android.permission.MODIFY_PHONE_STATE": {
        "protectionLevel": "signature|privileged|role"
    },
    "android.permission.MODIFY_QUIET_MODE": {
        "protectionLevel": "signature|privileged|development"
    },
    "android.permission.MODIFY_REFRESH_RATE_SWITCHING_TYPE": {
        "protectionLevel": "signature"
    },
    "android.permission.MODIFY_SETTINGS_OVERRIDEABLE_BY_RESTORE": {
        "protectionLevel": "signature|setup"
    },
    "android.permission.MODIFY_THEME_OVERLAY": {
        "protectionLevel": "signature"
    },
    "android.permission.MONITOR_DEFAULT_SMS_PACKAGE": {
        "protectionLevel": "signature|privileged"
    },
    "android.permission.MONITOR_DEVICE_CONFIG_ACCESS": {
        "protectionLevel": "signature"
    },
    "android.permission.MONITOR_INPUT": {
        "protectionLevel": "signature|recents"
    },
    "android.permission.MOUNT_FORMAT_FILESYSTEMS": {
        "protectionLevel": "signature|privileged"
    },
    "android.permission.MOUNT_UNMOUNT_FILESYSTEMS": {
        "protectionLevel": "signature|privileged"
    },
    "android.permission.MOVE_PACKAGE": {
        "protectionLevel": "signature|privileged"
    },
    "android.permission.NEARBY_WIFI_DEVICES": {
        "description": "permdesc_nearby_wifi_devices",
        "label": "permlab_nearby_wifi_devices",
        "protectionLevel": "dangerous"
    },
    "android.permission.NETWORK_AIRPLANE_MODE": {
        "protectionLevel": "signature"
    },
    "android.permission.NETWORK_BYPASS_PRIVATE_DNS": {
        "protectionLevel": "signature"
    },
    "android.permission.NETWORK_CARRIER_PROVISIONING": {
        "protectionLevel": "signature|privileged"
    },
    "android.permission.NETWORK_FACTORY": {
        "protectionLevel": "signature"
    },
    "android.permission.NETWORK_MANAGED_PROVISIONING": {
        "protectionLevel": "signature"
    },
    "android.permission.NETWORK_SCAN": {
        "protectionLevel": "signature|privileged"
    },
    "android.permission.NETWORK_SETTINGS": {
        "protectionLevel": "signature"
    },
    "android.permission.NETWORK_SETUP_WIZARD": {
        "protectionLevel": "signature|setup"
    },
    "android.permission.NETWORK_SIGNAL_STRENGTH_WAKEUP": {
        "protectionLevel": "signature|privileged"
    },
    "android.permission.NETWORK_STACK": {
        "protectionLevel": "signature"
    },
    "android.permission.NETWORK_STATS_PROVIDER": {
        "protectionLevel": "signature"
    },
    "android.permission.NET_ADMIN": {
        "protectionLevel": "signature"
    },
    "android.permission.NET_TUNNELING": {
        "protectionLevel": "signature"
    },
    "android.permission.NFC": {
        "description": "permdesc_nfc",
        "label": "permlab_nfc",
        "protectionLevel": "normal"
    },
    "android.permission.NFC_HANDOVER_STATUS": {
        "protectionLevel": "signature|privileged"
    },
    "android.permission.NFC_PREFERRED_PAYMENT_INFO": {
        "description": "permdesc_preferredPaymentInfo",
        "label": "permlab_preferredPaymentInfo",
        "protectionLevel": "normal"
    },
    "android.permission.NFC_SET_CONTROLLER_ALWAYS_ON": {
        "protectionLevel": "signature|privileged"
    },
    "android.permission.NFC_TRANSACTION_EVENT": {
        "protectionLevel": "normal"
    },
    "android.permission.NOTIFICATION_DURING_SETUP": {
        "protectionLevel": "signature|privileged"
    },
    "android.permission.NOTIFY_PENDING_SYSTEM_UPDATE": {
        "protectionLevel": "signature|privileged"
    },
    "android.permission.NOTIFY_TV_INPUTS": {
        "protectionLevel": "signature|privileged"
    },
    "android.permission.OBSERVE_APP_USAGE": {
        "protectionLevel": "signature|privileged"
    },
    "android.permission.OBSERVE_GRANT_REVOKE_PERMISSIONS": {
        "protectionLevel": "signature|privileged"
    },
    "android.permission.OBSERVE_NETWORK_POLICY": {
        "protectionLevel": "signature"
    },
    "android.permission.OBSERVE_ROLE_HOLDERS": {
        "protectionLevel": "signature|installer"
    },
    "android.permission.OBSERVE_SENSOR_PRIVACY": {
        "protectionLevel": "internal|role|installer"
    },
    "android.permission.OEM_UNLOCK_STATE": {
        "protectionLevel": "signature"
    },
    "android.permission.OPEN_ACCESSIBILITY_DETAILS_SETTINGS": {
        "protectionLevel": "signature|installer"
    },
    "android.permission.OPEN_APPLICATION_DETAILS_OPEN_BY_DEFAULT_PAGE": {
        "protectionLevel": "signature"
    },
    "android.permission.OVERRIDE_COMPAT_CHANGE_CONFIG": {
        "protectionLevel": "signature|privileged"
    },
    "android.permission.OVERRIDE_COMPAT_CHANGE_CONFIG_ON_RELEASE_BUILD": {
        "protectionLevel": "signature|privileged"
    },
    "android.permission.OVERRIDE_DISPLAY_MODE_REQUESTS": {
        "protectionLevel": "signature"
    },
    "android.permission.OVERRIDE_WIFI_CONFIG": {
        "protectionLevel": "signature|privileged"
    },
    "android.permission.PACKAGE_ROLLBACK_AGENT": {
        "protectionLevel": "signature"
    },
    "android.permission.PACKAGE_USAGE_STATS": {
        "protectionLevel": "signature|privileged|development|appop|retailDemo"
    },
    "android.permission.PACKAGE_VERIFICATION_AGENT": {
        "protectionLevel": "signature|privileged"
    },
    "android.permission.PACKET_KEEPALIVE_OFFLOAD": {
        "protectionLevel": "signature|privileged"
    },
    "android.permission.PEEK_DROPBOX_DATA": {
        "protectionLevel": "signature"
    },
    "android.permission.PEERS_MAC_ADDRESS": {
        "protectionLevel": "signature|setup"
    },
    "android.permission.PERFORM_CDMA_PROVISIONING": {
        "protectionLevel": "signature|privileged"
    },
    "android.permission.PERFORM_IMS_SINGLE_REGISTRATION": {
        "protectionLevel": "internal|role"
    },
    "android.permission.PERFORM_SIM_ACTIVATION": {
        "protectionLevel": "signature|privileged"
    },
    "android.permission.PERSISTENT_ACTIVITY": {
        "description": "permdesc_persistentActivity",
        "label": "permlab_persistentActivity",
        "protectionLevel": "normal"
    },
    "android.permission.POWER_SAVER": {
        "protectionLevel": "signature|privileged"
    },
    "android.permission.PROCESS_OUTGOING_CALLS": {
        "description": "permdesc_processOutgoingCalls",
        "label": "permlab_processOutgoingCalls",
        "protectionLevel": "dangerous"
    },
    "android.permission.PROVIDE_RESOLVER_RANKER_SERVICE": {
        "protectionLevel": "signature|privileged"
    },
    "android.permission.PROVIDE_TRUST_AGENT": {
        "protectionLevel": "signature|privileged"
    },
    "android.permission.QUERY_ALL_PACKAGES": {
        "description": "permdesc_queryAllPackages",
        "label": "permlab_queryAllPackages",
        "protectionLevel": "normal"
    },
    "android.permission.QUERY_AUDIO_STATE": {
        "protectionLevel": "signature"
    },
    "android.permission.QUERY_DO_NOT_ASK_CREDENTIALS_ON_BOOT": {
        "protectionLevel": "signature"
    },
    "android.permission.QUERY_TIME_ZONE_RULES": {
        "protectionLevel": "signature|privileged"
    },
    "android.permission.RADIO_SCAN_WITHOUT_LOCATION": {
        "protectionLevel": "signature|companion"
    },
    "android.permission.READ_ACTIVE_EMERGENCY_SESSION": {
        "protectionLevel": "signature"
    },
    "android.permission.READ_BASIC_PHONE_STATE": {
        "description": "permdesc_readBasicPhoneState",
        "label": "permlab_readBasicPhoneState",
        "protectionLevel": "normal"
    },
    "android.permission.READ_BLOCKED_NUMBERS": {
        "protectionLevel": "signature"
    },
    "android.permission.READ_CALENDAR": {
        "description": "permdesc_readCalendar",
        "label": "permlab_readCalendar",
        "protectionLevel": "dangerous"
    },
    "android.permission.READ_CALL_LOG": {
        "description": "permdesc_readCallLog",
        "label": "permlab_readCallLog",
        "protectionLevel": "dangerous"
    },
    "android.permission.READ_CARRIER_APP_INFO": {
        "protectionLevel": "signature"
    },
    "android.permission.READ_CELL_BROADCASTS": {
        "description": "permdesc_readCellBroadcasts",
        "label": "permlab_readCellBroadcasts",
        "protectionLevel": "dangerous"
    },
    "android.permission.READ_CLIPBOARD_IN_BACKGROUND": {
        "protectionLevel": "signature"
    },
    "android.permission.READ_COMPAT_CHANGE_CONFIG": {
        "protectionLevel": "signature|privileged"
    },
    "android.permission.READ_CONTACTS": {
        "description": "permdesc_readContacts",
        "label": "permlab_readContacts",
        "protectionLevel": "dangerous"
    },
    "android.permission.READ_CONTENT_RATING_SYSTEMS": {
        "protectionLevel": "signature|privileged"
    },
    "android.permission.READ_DEVICE_CONFIG": {
        "protectionLevel": "signature|preinstalled"
    },
    "android.permission.READ_DREAM_STATE": {
        "protectionLevel": "signature|privileged"
    },
    "android.permission.READ_DREAM_SUPPRESSION": {
        "protectionLevel": "signature"
    },
    "android.permission.READ_EXTERNAL_STORAGE": {
        "description": "permdesc_sdcardRead",
        "label": "permlab_sdcardRead",
        "protectionLevel": "dangerous"
    },
    "android.permission.READ_FRAME_BUFFER": {
        "protectionLevel": "signature|recents"
    },
    "android.permission.READ_GLOBAL_APP_SEARCH_DATA": {
        "protectionLevel": "internal|role"
    },
    "android.permission.READ_INPUT_STATE": {
        "protectionLevel": "signature"
    },
    "android.permission.READ_INSTALL_SESSIONS": {
        "description": "permdesc_readInstallSessions",
        "label": "permlab_readInstallSessions",
        "protectionLevel": "normal"
    },
    "android.permission.READ_LOGS": {
        "protectionLevel": "signature|privileged|development"
    },
    "android.permission.READ_LOWPAN_CREDENTIAL": {
        "protectionLevel": "signature|privileged"
    },
    "android.permission.READ_NEARBY_STREAMING_POLICY": {
        "protectionLevel": "signature|privileged"
    },
    "android.permission.READ_NETWORK_USAGE_HISTORY": {
        "protectionLevel": "signature|privileged"
    },
    "android.permission.READ_OEM_UNLOCK_STATE": {
        "protectionLevel": "signature|privileged"
    },
    "android.permission.READ_PEOPLE_DATA": {
        "protectionLevel": "signature|recents|role"
    },
    "android.permission.READ_PHONE_NUMBERS": {
        "description": "permdesc_readPhoneNumbers",
        "label": "permlab_readPhoneNumbers",
        "protectionLevel": "dangerous|instant"
    },
    "android.permission.READ_PHONE_STATE": {
        "description": "permdesc_readPhoneState",
        "label": "permlab_readPhoneState",
        "protectionLevel": "dangerous"
    },
    "android.permission.READ_PRECISE_PHONE_STATE": {
        "protectionLevel": "signature|privileged"
    },
    "android.permission.READ_PRINT_SERVICES": {
        "protectionLevel": "signature|preinstalled"
    },
    "android.permission.READ_PRINT_SERVICE_RECOMMENDATIONS": {
        "protectionLevel": "signature|preinstalled"
    },
    "android.permission.READ_PRIVILEGED_PHONE_STATE": {
        "protectionLevel": "signature|privileged"
    },
    "android.permission.READ_PROFILE": {
        "protectionLevel": "normal"
    },
    "android.permission.READ_PROJECTION_STATE": {
        "protectionLevel": "signature"
    },
    "android.permission.READ_RUNTIME_PROFILES": {
        "protectionLevel": "signature|privileged"
    },
    "android.permission.READ_SEARCH_INDEXABLES": {
        "protectionLevel": "signature|privileged"
    },
    "android.permission.READ_SMS": {
        "description": "permdesc_readSms",
        "label": "permlab_readSms",
        "protectionLevel": "dangerous"
    },
    "android.permission.READ_SOCIAL_STREAM": {
        "protectionLevel": "normal"
    },
    "android.permission.READ_SYNC_SETTINGS": {
        "description": "permdesc_readSyncSettings",
        "label": "permlab_readSyncSettings",
        "protectionLevel": "normal"
    },
    "android.permission.READ_SYNC_STATS": {
        "description": "permdesc_readSyncStats",
        "label": "permlab_readSyncStats",
        "protectionLevel": "normal"
    },
    "android.permission.READ_SYSTEM_UPDATE_INFO": {
        "protectionLevel": "signature|privileged"
    },
    "android.permission.READ_USER_DICTIONARY": {
        "protectionLevel": "normal"
    },
    "android.permission.READ_WALLPAPER_INTERNAL": {
        "protectionLevel": "signature|privileged"
    },
    "android.permission.READ_WIFI_CREDENTIAL": {
        "protectionLevel": "signature|privileged"
    },
    "android.permission.REAL_GET_TASKS": {
        "protectionLevel": "signature|privileged"
    },
    "android.permission.REBOOT": {
        "protectionLevel": "signature|privileged"
    },
    "android.permission.RECEIVE_BLUETOOTH_MAP": {
        "protectionLevel": "signature|privileged"
    },
    "android.permission.RECEIVE_BOOT_COMPLETED": {
        "description": "permdesc_receiveBootCompleted",
        "label": "permlab_receiveBootCompleted",
        "protectionLevel": "normal"
    },
    "android.permission.RECEIVE_DATA_ACTIVITY_CHANGE": {
        "protectionLevel": "signature|privileged"
    },
    "android.permission.RECEIVE_DEVICE_CUSTOMIZATION_READY": {
        "protectionLevel": "signature|preinstalled"
    },
    "android.permission.RECEIVE_EMERGENCY_BROADCAST": {
        "protectionLevel": "signature|privileged"
    },
    "android.permission.RECEIVE_MEDIA_RESOURCE_USAGE": {
        "protectionLevel": "signature|privileged"
    },
    "android.permission.RECEIVE_MMS": {
        "description": "permdesc_receiveMms",
        "label": "permlab_receiveMms",
        "protectionLevel": "dangerous"
    },
    "android.permission.RECEIVE_SMS": {
        "description": "permdesc_receiveSms",
        "label": "permlab_receiveSms",
        "protectionLevel": "dangerous"
    },
    "android.permission.RECEIVE_STK_COMMANDS": {
        "protectionLevel": "signature|privileged"
    },
    "android.permission.RECEIVE_WAP_PUSH": {
        "description": "permdesc_receiveWapPush",
        "label": "permlab_receiveWapPush",
        "protectionLevel": "dangerous"
    },
    "android.permission.RECEIVE_WIFI_CREDENTIAL_CHANGE": {
        "protectionLevel": "signature|privileged"
    },
    "android.permission.RECORD_AUDIO": {
        "description": "permdesc_recordAudio",
        "label": "permlab_recordAudio",
        "protectionLevel": "dangerous|instant"
    },
    "android.permission.RECORD_BACKGROUND_AUDIO": {
        "description": "permdesc_recordBackgroundAudio",
        "label": "permlab_recordBackgroundAudio",
        "protectionLevel": "internal|role"
    },
    "android.permission.RECOVERY": {
        "protectionLevel": "signature|privileged"
    },
    "android.permission.RECOVER_KEYSTORE": {
        "protectionLevel": "signature|privileged"
    },
    "android.permission.REGISTER_CALL_PROVIDER": {
        "protectionLevel": "signature|privileged"
    },
    "android.permission.REGISTER_CONNECTION_MANAGER": {
        "protectionLevel": "signature|privileged"
    },
    "android.permission.REGISTER_MEDIA_RESOURCE_OBSERVER": {
        "protectionLevel": "signature|privileged"
    },
    "android.permission.REGISTER_SIM_SUBSCRIPTION": {
        "protectionLevel": "signature|privileged"
    },
    "android.permission.REGISTER_STATS_PULL_ATOM": {
        "protectionLevel": "signature|privileged"
    },
    "android.permission.REGISTER_WINDOW_MANAGER_LISTENERS": {
        "protectionLevel": "signature"
    },
    "android.permission.REMOTE_AUDIO_PLAYBACK": {
        "protectionLevel": "signature"
    },
    "android.permission.REMOTE_DISPLAY_PROVIDER": {
        "protectionLevel": "signature|privileged"
    },
    "android.permission.REMOVE_DRM_CERTIFICATES": {
        "protectionLevel": "signature|privileged"
    },
    "android.permission.REMOVE_TASKS": {
        "protectionLevel": "signature|documenter|recents"
    },
    "android.permission.RENOUNCE_PERMISSIONS": {
        "protectionLevel": "signature|privileged"
    },
    "android.permission.REORDER_TASKS": {
        "description": "permdesc_reorderTasks",
        "label": "permlab_reorderTasks",
        "protectionLevel": "normal"
    },
    "android.permission.REQUEST_COMPANION_PROFILE_WATCH": {
        "protectionLevel": "normal"
    },
    "android.permission.REQUEST_COMPANION_RUN_IN_BACKGROUND": {
        "description": "permdesc_runInBackground",
        "label": "permlab_runInBackground",
        "protectionLevel": "normal"
    },
    "android.permission.REQUEST_COMPANION_START_FOREGROUND_SERVICES_FROM_BACKGROUND": {
        "protectionLevel": "normal"
    },
    "android.permission.REQUEST_COMPANION_USE_DATA_IN_BACKGROUND": {
        "description": "permdesc_useDataInBackground",
        "label": "permlab_useDataInBackground",
        "protectionLevel": "normal"
    },
    "android.permission.REQUEST_DELETE_PACKAGES": {
        "description": "permdesc_requestDeletePackages",
        "label": "permlab_requestDeletePackages",
        "protectionLevel": "normal"
    },
    "android.permission.REQUEST_IGNORE_BATTERY_OPTIMIZATIONS": {
        "description": "permdesc_requestIgnoreBatteryOptimizations",
        "label": "permlab_requestIgnoreBatteryOptimizations",
        "protectionLevel": "normal"
    },
    "android.permission.REQUEST_INCIDENT_REPORT_APPROVAL": {
        "protectionLevel": "signature|privileged"
    },
    "android.permission.REQUEST_INSTALL_PACKAGES": {
        "description": "permdesc_requestInstallPackages",
        "label": "permlab_requestInstallPackages",
        "protectionLevel": "signature|appop"
    },
    "android.permission.REQUEST_NETWORK_SCORES": {
        "protectionLevel": "signature|setup"
    },
    "android.permission.REQUEST_NOTIFICATION_ASSISTANT_SERVICE": {
        "protectionLevel": "signature|privileged|role"
    },
    "android.permission.REQUEST_OBSERVE_COMPANION_DEVICE_PRESENCE": {
        "protectionLevel": "normal"
    },
    "android.permission.REQUEST_PASSWORD_COMPLEXITY": {
        "description": "permdesc_requestPasswordComplexity",
        "label": "permlab_requestPasswordComplexity",
        "protectionLevel": "normal"
    },
    "android.permission.REQUEST_UNIQUE_ID_ATTESTATION": {
        "protectionLevel": "signature"
    },
    "android.permission.RESET_APP_ERRORS": {
        "protectionLevel": "signature"
    },
    "android.permission.RESET_FINGERPRINT_LOCKOUT": {
        "protectionLevel": "signature"
    },
    "android.permission.RESET_PASSWORD": {
        "protectionLevel": "signature|privileged"
    },
    "android.permission.RESET_SHORTCUT_MANAGER_THROTTLING": {
        "protectionLevel": "signature"
    },
    "android.permission.RESTART_PACKAGES": {
        "description": "permdesc_killBackgroundProcesses",
        "label": "permlab_killBackgroundProcesses",
        "protectionLevel": "normal"
    },
    "android.permission.RESTART_WIFI_SUBSYSTEM": {
        "protectionLevel": "signature|privileged"
    },
    "android.permission.RESTORE_RUNTIME_PERMISSIONS": {
        "protectionLevel": "signature"
    },
    "android.permission.RESTRICTED_VR_ACCESS": {
        "protectionLevel": "signature|preinstalled"
    },
    "android.permission.RETRIEVE_WINDOW_CONTENT": {
        "protectionLevel": "signature|privileged"
    },
    "android.permission.RETRIEVE_WINDOW_TOKEN": {
        "protectionLevel": "signature"
    },
    "android.permission.REVIEW_ACCESSIBILITY_SERVICES": {
        "protectionLevel": "signature"
    },
    "android.permission.REVOKE_RUNTIME_PERMISSIONS": {
        "protectionLevel": "signature|installer|verifier"
    },
    "android.permission.ROTATE_SURFACE_FLINGER": {
        "protectionLevel": "signature|recents"
    },
    "android.permission.RUN_IN_BACKGROUND": {
        "description": "permdesc_runInBackground",
        "label": "permlab_runInBackground",
        "protectionLevel": "signature"
    },
    "android.permission.SCHEDULE_EXACT_ALARM": {
        "protectionLevel": "normal|appop"
    },
    "android.permission.SCHEDULE_PRIORITIZED_ALARM": {
        "protectionLevel": "signature|privileged"
    },
    "android.permission.SCORE_NETWORKS": {
        "protectionLevel": "signature|privileged"
    },
    "android.permission.SECURE_ELEMENT_PRIVILEGED_OPERATION": {
        "protectionLevel": "signature|privileged"
    },
    "android.permission.SEND_CATEGORY_CAR_NOTIFICATIONS": {
        "protectionLevel": "signature|privileged"
    },
    "android.permission.SEND_DEVICE_CUSTOMIZATION_READY": {
        "protectionLevel": "signature|privileged"
    },
    "android.permission.SEND_EMBMS_INTENTS": {
        "protectionLevel": "signature|privileged"
    },
    "android.permission.SEND_RESPOND_VIA_MESSAGE": {
        "protectionLevel": "signature|privileged"
    },
    "android.permission.SEND_SHOW_SUSPENDED_APP_DETAILS": {
        "protectionLevel": "signature"
    },
    "android.permission.SEND_SMS": {
        "description": "permdesc_sendSms",
        "label": "permlab_sendSms",
        "protectionLevel": "dangerous"
    },
    "android.permission.SEND_SMS_NO_CONFIRMATION": {
        "protectionLevel": "signature|privileged"
    },
    "android.permission.SERIAL_PORT": {
        "protectionLevel": "signature|privileged"
    },
    "android.permission.SET_ACTIVITY_WATCHER": {
        "protectionLevel": "signature"
    },
    "android.permission.SET_ALWAYS_FINISH": {
        "protectionLevel": "signature|privileged|development"
    },
    "android.permission.SET_AND_VERIFY_LOCKSCREEN_CREDENTIALS": {
        "protectionLevel": "signature"
    },
    "android.permission.SET_ANIMATION_SCALE": {
        "protectionLevel": "signature|privileged|development"
    },
    "android.permission.SET_CLIP_SOURCE": {
        "protectionLevel": "signature|recents"
    },
    "android.permission.SET_DEBUG_APP": {
        "protectionLevel": "signature|privileged|development"
    },
    "android.permission.SET_DISPLAY_OFFSET": {
        "protectionLevel": "signature|privileged"
    },
    "android.permission.SET_HARMFUL_APP_WARNINGS": {
        "protectionLevel": "signature|verifier"
    },
    "android.permission.SET_INITIAL_LOCK": {
        "protectionLevel": "signature|setup"
    },
    "android.permission.SET_INPUT_CALIBRATION": {
        "protectionLevel": "signature"
    },
    "android.permission.SET_KEYBOARD_LAYOUT": {
        "protectionLevel": "signature"
    },
    "android.permission.SET_MEDIA_KEY_LISTENER": {
        "protectionLevel": "signature|privileged|development"
    },
    "android.permission.SET_ORIENTATION": {
        "protectionLevel": "signature|recents"
    },
    "android.permission.SET_POINTER_SPEED": {
        "protectionLevel": "signature"
    },
    "android.permission.SET_PREFERRED_APPLICATIONS": {
        "protectionLevel": "signature|installer|verifier"
    },
    "android.permission.SET_PROCESS_LIMIT": {
        "protectionLevel": "signature|privileged|development"
    },
    "android.permission.SET_SCREEN_COMPATIBILITY": {
        "protectionLevel": "signature"
    },
    "android.permission.SET_TIME": {
        "protectionLevel": "signature|privileged"
    },
    "android.permission.SET_TIME_ZONE": {
        "description": "permdesc_setTimeZone",
        "label": "permlab_setTimeZone",
        "protectionLevel": "signature|privileged"
    },
    "android.permission.SET_VOLUME_KEY_LONG_PRESS_LISTENER": {
        "protectionLevel": "signature|privileged|development"
    },
    "android.permission.SET_WALLPAPER": {
        "description": "permdesc_setWallpaper",
        "label": "permlab_setWallpaper",
        "protectionLevel": "normal"
    },
    "android.permission.SET_WALLPAPER_COMPONENT": {
        "protectionLevel": "signature|privileged"
    },
    "android.permission.SET_WALLPAPER_HINTS": {
        "description": "permdesc_setWallpaperHints",
        "label": "permlab_setWallpaperHints",
        "protectionLevel": "normal"
    },
    "android.permission.SHOW_KEYGUARD_MESSAGE": {
        "protectionLevel": "signature|privileged"
    },
    "android.permission.SHUTDOWN": {
        "protectionLevel": "signature|privileged"
    },
    "android.permission.SIGNAL_PERSISTENT_PROCESSES": {
        "protectionLevel": "signature|privileged|development"
    },
    "android.permission.SIGNAL_REBOOT_READINESS": {
        "protectionLevel": "signature|privileged"
    },
    "android.permission.SMS_FINANCIAL_TRANSACTIONS": {
        "protectionLevel": "signature|appop"
    },
    "android.permission.SOUNDTRIGGER_DELEGATE_IDENTITY": {
        "protectionLevel": "signature|privileged"
    },
    "android.permission.SOUND_TRIGGER_RUN_IN_BATTERY_SAVER": {
        "protectionLevel": "signature|privileged"
    },
    "android.permission.START_ACTIVITIES_FROM_BACKGROUND": {
        "protectionLevel": "signature|privileged|vendorPrivileged|oem|verifier"
    },
    "android.permission.START_ACTIVITY_AS_CALLER": {
        "protectionLevel": "signature"
    },
    "android.permission.START_ANY_ACTIVITY": {
        "protectionLevel": "signature"
    },
    "android.permission.START_CROSS_PROFILE_ACTIVITIES": {
        "protectionLevel": "signature|role"
    },
    "android.permission.START_FOREGROUND_SERVICES_FROM_BACKGROUND": {
        "protectionLevel": "signature|privileged|vendorPrivileged|oem|verifier|role"
    },
    "android.permission.START_TASKS_FROM_RECENTS": {
        "protectionLevel": "signature|privileged|recents"
    },
    "android.permission.START_VIEW_PERMISSION_USAGE": {
        "description": "permdesc_startViewPermissionUsage",
        "label": "permlab_startViewPermissionUsage",
        "protectionLevel": "signature|installer"
    },
    "android.permission.STATSCOMPANION": {
        "protectionLevel": "signature"
    },
    "android.permission.STATUS_BAR": {
        "protectionLevel": "signature|privileged|recents"
    },
    "android.permission.STATUS_BAR_SERVICE": {
        "protectionLevel": "signature"
    },
    "android.permission.STOP_APP_SWITCHES": {
        "protectionLevel": "signature|privileged|recents"
    },
    "android.permission.STORAGE_INTERNAL": {
        "protectionLevel": "signature"
    },
    "android.permission.SUBSCRIBED_FEEDS_READ": {
        "protectionLevel": "normal"
    },
    "android.permission.SUBSCRIBED_FEEDS_WRITE": {
        "protectionLevel": "normal"
    },
    "android.permission.SUBSTITUTE_NOTIFICATION_APP_NAME": {
        "protectionLevel": "signature|privileged"
    },
    "android.permission.SUBSTITUTE_SHARE_TARGET_APP_NAME_AND_ICON": {
        "protectionLevel": "signature|privileged"
    },
    "android.permission.SUGGEST_EXTERNAL_TIME": {
        "protectionLevel": "signature|privileged"
    },
    "android.permission.SUGGEST_MANUAL_TIME_AND_ZONE": {
        "protectionLevel": "signature"
    },
    "android.permission.SUGGEST_TELEPHONY_TIME_AND_ZONE": {
        "protectionLevel": "signature"
    },
    "android.permission.SUSPEND_APPS": {
        "protectionLevel": "signature|role"
    },
    "android.permission.SYSTEM_ALERT_WINDOW": {
        "description": "permdesc_systemAlertWindow",
        "label": "permlab_systemAlertWindow",
        "protectionLevel": "signature|setup|appop|installer|pre23|development"
    },
    "android.permission.SYSTEM_APPLICATION_OVERLAY": {
        "protectionLevel": "signature|recents|role"
    },
    "android.permission.SYSTEM_CAMERA": {
        "description": "permdesc_systemCamera",
        "label": "permlab_systemCamera",
        "protectionLevel": "system|signature|role"
    },
    "android.permission.TABLET_MODE": {
        "protectionLevel": "signature"
    },
    "android.permission.TEMPORARY_ENABLE_ACCESSIBILITY": {
        "protectionLevel": "signature"
    },
    "android.permission.TEST_BIOMETRIC": {
        "protectionLevel": "signature"
    },
    "android.permission.TEST_BLACKLISTED_PASSWORD": {
        "protectionLevel": "signature"
    },
    "android.permission.TEST_MANAGE_ROLLBACKS": {
        "protectionLevel": "signature"
    },
    "android.permission.TETHER_PRIVILEGED": {
        "protectionLevel": "signature|privileged"
    },
    "android.permission.TOGGLE_AUTOMOTIVE_PROJECTION": {
        "protectionLevel": "signature|privileged"
    },
    "android.permission.TRANSMIT_IR": {
        "description": "permdesc_transmitIr",
        "label": "permlab_transmitIr",
        "protectionLevel": "normal"
    },
    "android.permission.TRIGGER_SHELL_BUGREPORT": {
        "protectionLevel": "signature"
    },
    "android.permission.TRIGGER_SHELL_PROFCOLLECT_UPLOAD": {
        "protectionLevel": "signature"
    },
    "android.permission.TRIGGER_TIME_ZONE_RULES_CHECK": {
        "protectionLevel": "signature"
    },
    "android.permission.TRUST_LISTENER": {
        "protectionLevel": "signature"
    },
    "android.permission.TUNER_RESOURCE_ACCESS": {
        "protectionLevel": "signature|privileged|vendorPrivileged"
    },
    "android.permission.TV_INPUT_HARDWARE": {
        "protectionLevel": "signature|privileged|vendorPrivileged"
    },
    "android.permission.TV_VIRTUAL_REMOTE_CONTROLLER": {
        "protectionLevel": "signature|privileged"
    },
    "android.permission.UNLIMITED_SHORTCUTS_API_CALLS": {
        "protectionLevel": "signature|role"
    },
    "android.permission.UNLIMITED_TOASTS": {
        "protectionLevel": "signature"
    },
    "android.permission.UPDATE_APP_OPS_STATS": {
        "protectionLevel": "signature|privileged|installer|role"
    },
    "android.permission.UPDATE_CONFIG": {
        "protectionLevel": "signature|privileged"
    },
    "android.permission.UPDATE_DEVICE_STATS": {
        "protectionLevel": "signature|privileged|role"
    },
    "android.permission.UPDATE_DOMAIN_VERIFICATION_USER_SELECTION": {
        "protectionLevel": "signature"
    },
    "android.permission.UPDATE_FONTS": {
        "protectionLevel": "signature|privileged"
    },
    "android.permission.UPDATE_LOCK": {
        "protectionLevel": "signature|privileged"
    },
    "android.permission.UPDATE_LOCK_TASK_PACKAGES": {
        "protectionLevel": "signature|setup"
    },
    "android.permission.UPDATE_PACKAGES_WITHOUT_USER_ACTION": {
        "protectionLevel": "normal"
    },
    "android.permission.UPDATE_TIME_ZONE_RULES": {
        "protectionLevel": "signature|privileged"
    },
    "android.permission.UPGRADE_RUNTIME_PERMISSIONS": {
        "protectionLevel": "signature"
    },
    "android.permission.USER_ACTIVITY": {
        "protectionLevel": "signature|privileged"
    },
    "android.permission.USE_BIOMETRIC": {
        "description": "permdesc_useBiometric",
        "label": "permlab_useBiometric",
        "protectionLevel": "normal"
    },
    "android.permission.USE_BIOMETRIC_INTERNAL": {
        "protectionLevel": "signature"
    },
    "android.permission.USE_COLORIZED_NOTIFICATIONS": {
        "protectionLevel": "signature|setup"
    },
    "android.permission.USE_CREDENTIALS": {
        "protectionLevel": "normal"
    },
    "android.permission.USE_DATA_IN_BACKGROUND": {
        "description": "permdesc_useDataInBackground",
        "label": "permlab_useDataInBackground",
        "protectionLevel": "signature"
    },
    "android.permission.USE_FINGERPRINT": {
        "description": "permdesc_useFingerprint",
        "label": "permlab_useFingerprint",
        "protectionLevel": "normal"
    },
    "android.permission.USE_FULL_SCREEN_INTENT": {
        "description": "permdesc_fullScreenIntent",
        "label": "permlab_fullScreenIntent",
        "protectionLevel": "normal"
    },
    "android.permission.USE_ICC_AUTH_WITH_DEVICE_IDENTIFIER": {
        "protectionLevel": "signature|appop"
    },
    "android.permission.USE_RESERVED_DISK": {
        "protectionLevel": "signature|privileged"
    },
    "android.permission.USE_SIP": {
        "description": "permdesc_use_sip",
        "label": "permlab_use_sip",
        "protectionLevel": "dangerous"
    },
    "android.permission.UWB_PRIVILEGED": {
        "protectionLevel": "signature|privileged"
    },
    "android.permission.UWB_RANGING": {
        "description": "permdesc_uwb_ranging",
        "label": "permlab_uwb_ranging",
        "protectionLevel": "dangerous"
    },
    "android.permission.VIBRATE": {
        "description": "permdesc_vibrate",
        "label": "permlab_vibrate",
        "protectionLevel": "normal|instant"
    },
    "android.permission.VIBRATE_ALWAYS_ON": {
        "protectionLevel": "signature"
    },
    "android.permission.VIEW_INSTANT_APPS": {
        "protectionLevel": "signature|preinstalled"
    },
    "android.permission.VIRTUAL_INPUT_DEVICE": {
        "protectionLevel": "signature"
    },
    "android.permission.WAKE_LOCK": {
        "description": "permdesc_wakeLock",
        "label": "permlab_wakeLock",
        "protectionLevel": "normal|instant"
    },
    "android.permission.WATCH_APPOPS": {
        "protectionLevel": "signature|privileged"
    },
    "android.permission.WHITELIST_AUTO_REVOKE_PERMISSIONS": {
        "protectionLevel": "signature|installer"
    },
    "android.permission.WHITELIST_RESTRICTED_PERMISSIONS": {
        "protectionLevel": "signature|installer"
    },
    "android.permission.WIFI_ACCESS_COEX_UNSAFE_CHANNELS": {
        "protectionLevel": "signature|role"
    },
    "android.permission.WIFI_SET_DEVICE_MOBILITY_STATE": {
        "protectionLevel": "signature|privileged"
    },
    "android.permission.WIFI_UPDATE_COEX_UNSAFE_CHANNELS": {
        "protectionLevel": "signature|role"
    },
    "android.permission.WIFI_UPDATE_USABILITY_STATS_SCORE": {
        "protectionLevel": "signature|privileged"
    },
    "android.permission.WRITE_APN_SETTINGS": {
        "protectionLevel": "signature|privileged"
    },
    "android.permission.WRITE_BLOCKED_NUMBERS": {
        "protectionLevel": "signature"
    },
    "android.permission.WRITE_CALENDAR": {
        "description": "permdesc_writeCalendar",
        "label": "permlab_writeCalendar",
        "protectionLevel": "dangerous"
    },
    "android.permission.WRITE_CALL_LOG": {
        "description": "permdesc_writeCallLog",
        "label": "permlab_writeCallLog",
        "protectionLevel": "dangerous"
    },
    "android.permission.WRITE_CONTACTS": {
        "description": "permdesc_writeContacts",
        "label": "permlab_writeContacts",
        "protectionLevel": "dangerous"
    },
    "android.permission.WRITE_DEVICE_CONFIG": {
        "protectionLevel": "signature|verifier|configurator"
    },
    "android.permission.WRITE_DREAM_STATE": {
        "protectionLevel": "signature|privileged"
    },
    "android.permission.WRITE_EMBEDDED_SUBSCRIPTIONS": {
        "protectionLevel": "signature|privileged|development"
    },
    "android.permission.WRITE_EXTERNAL_STORAGE": {
        "description": "permdesc_sdcardWrite",
        "label": "permlab_sdcardWrite",
        "protectionLevel": "dangerous"
    },
    "android.permission.WRITE_GSERVICES": {
        "protectionLevel": "signature|privileged"
    },
    "android.permission.WRITE_MEDIA_STORAGE": {
        "protectionLevel": "signature|privileged"
    },
    "android.permission.WRITE_OBB": {
        "protectionLevel": "signature|privileged"
    },
    "android.permission.WRITE_PROFILE": {
        "protectionLevel": "normal"
    },
    "android.permission.WRITE_SECURE_SETTINGS": {
        "protectionLevel": "signature|privileged|development"
    },
    "android.permission.WRITE_SETTINGS": {
        "description": "permdesc_writeSettings",
        "label": "permlab_writeSettings",
        "protectionLevel": "signature|preinstalled|appop|pre23"
    },
    "android.permission.WRITE_SETTINGS_HOMEPAGE_DATA": {
        "protectionLevel": "signature|privileged"
    },
    "android.permission.WRITE_SMS": {
        "protectionLevel": "normal"
    },
    "android.permission.WRITE_SOCIAL_STREAM": {
        "protectionLevel": "normal"
    },
    "android.permission.WRITE_SYNC_SETTINGS": {
        "description": "permdesc_writeSyncSettings",
        "label": "permlab_writeSyncSettings",
        "protectionLevel": "normal"
    },
    "android.permission.WRITE_USER_DICTIONARY": {
        "protectionLevel": "normal"
    },
    "com.android.alarm.permission.SET_ALARM": {
        "description": "permdesc_setAlarm",
        "label": "permlab_setAlarm",
        "protectionLevel": "normal"
    },
    "com.android.browser.permission.READ_HISTORY_BOOKMARKS": {
        "protectionLevel": "normal"
    },
    "com.android.browser.permission.WRITE_HISTORY_BOOKMARKS": {
        "protectionLevel": "normal"
    },
    "com.android.launcher.permission.INSTALL_SHORTCUT": {
        "description": "permdesc_install_shortcut",
        "label": "permlab_install_shortcut",
        "protectionLevel": "normal"
    },
    "com.android.launcher.permission.UNINSTALL_SHORTCUT": {
        "description": "permdesc_uninstall_shortcut",
        "label": "permlab_uninstall_shortcut",
        "protectionLevel": "normal"
    },
    "com.android.permission.INSTALL_EXISTING_PACKAGES": {
        "protectionLevel": "signature|privileged"
    },
    "com.android.permission.USE_INSTALLER_V2": {
        "protectionLevel": "signature|privileged"
    },
    "com.android.permission.USE_SYSTEM_DATA_LOADERS": {
        "protectionLevel": "signature"
    },
    "com.android.voicemail.permission.ADD_VOICEMAIL": {
        "description": "permdesc_addVoicemail",
        "label": "permlab_addVoicemail",
        "protectionLevel": "dangerous"
    },
    "com.android.voicemail.permission.READ_VOICEMAIL": {
        "protectionLevel": "signature|privileged|role"
    },
    "com.android.voicemail.permission.WRITE_VOICEMAIL": {
        "protectionLevel": "signature|privileged|role"
    }
}